<?xml version="1.0" encoding="UTF-8" standalone="no"?>
<svg xmlns="http://www.w3.org/2000/svg" height="600" width="800" version="1.1" viewBox="0 0 211.66666 158.75">
 <g>
  <g fill="#c6b465" transform="matrix(1.04 0 0 1.04 -231 225.7)">
   <path d="m374.2-116.9c1.895-1.196 2.131-2.301 0.7146-3.348-0.9565-0.7072-0.9564-1.108 0.00061-1.673 0.8737-0.5161 1.887-2.416 1.887-3.537 0-1.061-1.137-2.324-2.399-2.664-1.3-0.3502-2.053-1.555-1.597-2.556 0.412-0.9042-0.7664-3.26-1.631-3.261-0.325-0.00054-0.9807-0.2387-1.457-0.5292-1.031-0.6285-1.63-0.6646-2.324-0.1397-0.2825 0.2136-0.8313 0.3922-1.22 0.3969-1.146 0.0137-1.532 0.2758-2.081 1.413-0.5702 1.18-0.6597 1.918-0.2626 2.163 0.1416 0.0875 0.3844 0.6306 0.5396 1.207 0.309 1.147 1.275 1.972 2.034 1.736 0.2618-0.0815 0.6401-0.0452 0.8406 0.0808 0.6362 0.3995 0.0424 0.8173-1.162 0.8173-1.038 0-1.254-0.1132-2.013-1.058-0.954-1.187-1.562-1.317-2.372-0.5062-0.8178 0.8178-0.464 1.695 1.4 3.468 1.147 1.092 1.875 1.569 2.56 1.681 2.272 0.369 3.736 1.42 3.736 2.683 0 0.3264 0.3491 0.991 0.7757 1.477 0.4266 0.4859 0.8576 1.234 0.9578 1.663 0.3632 1.555 1.176 1.684 3.072 0.4871z"/>
   <path d="m378.9-120.1c0.5161-0.4342 0.9722-1.206 1.269-2.147l0.463-1.469-0.6326-0.5122c-1.048-0.8485-1.891-0.548-2.718 0.9693-1.54 2.824-0.4683 4.915 1.619 3.158z"/>
  </g>
 </g>
</svg>
