<?xml version="1.0" encoding="UTF-8" standalone="no"?>
<svg xmlns="http://www.w3.org/2000/svg" height="600" width="800" version="1.1" viewBox="0 0 211.66666 158.75">
 <g stroke="#000" fill-rule="evenodd" stroke-width=".2751px">
  <path d="m153.2 70.4-1.653-1.216s0.1459-2.14 0.389-2.626c0.2431-0.4863 0.6321-1.848 0.6321-1.848l1.118 0.1945 0.0972 2.14 1.167 1.264 0.0972 1.41z" transform="translate(-139 -16.67)"/>
  <path d="m158.1 62.02 0.1031-1.066s-1.822-1.788-3.06-0.9284-2.166 2.957-2.166 2.957l1.135 0.9284 1.169 0.03438s0.894-0.894 1.307-1.272c0.4126-0.3782 1.513-0.6533 1.513-0.6533z" transform="translate(-139 -16.67)"/>
  <path d="m156.6 58.24s1.822-2.544 2.716-2.579c0.894-0.03438 1.65 0.1375 1.65 0.5845s0.1031 0.7908-0.6877 1.616-1.616 0.8596-1.822 1.1c-0.4475 0.8436-2.164 0.04612-1.857-0.7221z" transform="translate(-139 -16.67)"/>
 </g>
</svg>
