<?xml version="1.0" encoding="UTF-8" standalone="no"?>
<svg xmlns="http://www.w3.org/2000/svg" height="600" width="800" version="1.1" viewBox="0 0 211.66666 158.75">
 <g>
  <path d="m176.8 55.63-1.272-2.819-0.5158-0.8252-1.066-0.1032-0.3438 0.6877-3.06-0.2407-0.2751 0.9284-0.2751 0.5845 0.1375 0.7221 3.266 1.65 0.2751 1.513z" fill-rule="evenodd" transform="translate(-139 -16.67)" stroke="#000" stroke-width=".2751px"/>
 </g>
</svg>
