<?xml version="1.0" encoding="UTF-8" standalone="no"?>
<svg xmlns="http://www.w3.org/2000/svg" height="600" width="800" version="1.1" viewBox="0 0 211.66666 158.75">
 <g>
  <path d="m158.1 62.02 0.1031-1.066s-1.822-1.788-3.06-0.9284-2.166 2.957-2.166 2.957l1.135 0.9284 1.169 0.03438s0.894-0.894 1.307-1.272c0.4126-0.3782 1.513-0.6533 1.513-0.6533z" fill-rule="evenodd" transform="translate(-139 -16.67)" stroke="#000" stroke-width=".2751px"/>
 </g>
</svg>
