<?xml version="1.0" encoding="UTF-8" standalone="no"?>
<svg xmlns="http://www.w3.org/2000/svg" height="600" width="800" version="1.1" viewBox="0 0 211.66666 158.75">
 <g fill-rule="evenodd" transform="translate(-139 -16.67)" fill="#c6b465">
  <path d="m275.6 126.2c7.427-6.67 7.152-16.02 1.788-22.21-5.364-6.189-10.38-7.496-13.82-5.708-3.438 1.788-9.146 11.97-5.364 20.84 3.782 8.871 14.23 9.284 17.4 7.083z"/>
  <path d="m257.2 64.02c-0.353-0.0048-0.5657 0.1306-0.5657 0.1306l0.6404 41.52c1.484-4.238 3.976-7.519 5.846-8.491 3.452-1.795 8.385-0.69 13.72 4.873l-18.5-36.92c-0.00006-0.00002-0.4374-1.028-0.722-1.1-0.1461-0.04298-0.2794-0.06017-0.397-0.06178z"/>
 </g>
</svg>
